…
social_mark <- read.csv("data/social_marketing.csv")
social_mark_quant <- social_mark[,! names(social_mark) %in% "X"]
social_mark_quant_scaled <- scale(social_mark_quant)
social_mark_clusters <- kmeans(social_mark_quant_scaled, centers=10, nstart=50)
social_mark$cluster <- social_mark_clusters$cluster
cluster_means <- aggregate(social_mark[, 2:36], by=list(social_mark$cluster), mean)
cluster_means <- melt(cluster_means,id="Group.1")
cluster_means <- cluster_means %>% 
  group_by(Group.1) %>%
  arrange(desc(value)) %>% 
  slice(1:10)
cluster_means
```

    ## # A tibble: 100 × 3
    ## # Groups:   Group.1 [10]
    ##    Group.1 variable         value
    ##      <int> <fct>            <dbl>
    ##  1       1 health_nutrition 12.5 
    ##  2       1 personal_fitness  6.65
    ##  3       1 chatter           3.94
    ##  4       1 cooking           3.43
    ##  5       1 outdoors          2.88
    ##  6       1 photo_sharing     2.40
    ##  7       1 food              2.21
    ##  8       1 current_events    1.51
    ##  9       1 shopping          1.28
    ## 10       1 travel            1.23
    ## # … with 90 more rows
…
